Mój raport Text Mining
…
# Zliczanie sentymentu
sentiment_review <- tidy_tokeny %>%
  inner_join(loughran, relationship = "many-to-many")

## Joining with `by = join_by(word)`

# Zliczanie, które słowa są najczęstsze
# dla danego sentymentu
sentiment_review %>%
  group_by(sentiment) %>%
  arrange(desc(freq)) %>%
  ungroup()

## # A tibble: 80 × 3
##    word          freq sentiment   
##    <chr>        <int> <chr>       
##  1 unemployment    24 negative    
##  2 risks           14 uncertainty 
##  3 mandate         11 constraining
##  4 concern         10 negative    
##  5 weakening        8 negative    
##  6 slowdown         7 negative    
##  7 challenging      6 negative    
##  8 difficult        6 negative    
##  9 benefit          5 positive    
## 10 restrictive      5 constraining
## # ℹ 70 more rows
…
# Zliczanie sentymentu
sentiment_review_nrc <- tidy_tokeny %>%
  inner_join(nrc, relationship = "many-to-many")

## Joining with `by = join_by(word)`

# Zliczanie, które słowa są najczęstsze
# dla danego sentymentu
sentiment_review_nrc %>%
  group_by(sentiment) %>%
  arrange(desc(freq)) %>%
  ungroup()

## # A tibble: 276 × 3
##    word       freq sentiment   
##    <chr>     <int> <chr>       
##  1 inflation    45 fear        
##  2 inflation    45 negative    
##  3 time         35 anticipation
##  4 wait         23 anticipation
##  5 wait         23 negative    
##  6 labor        19 anticipation
##  7 labor        19 joy         
##  8 labor        19 positive    
##  9 labor        19 surprise    
## 10 labor        19 trust       
## # ℹ 266 more rows
…
